{
  "databaseVariable1" : {
    "_id" : "wm-databaseVariable1-wm.LiveVariable-1521181966598",
    "name" : "databaseVariable1",
    "owner" : "Page",
    "category" : "wm.LiveVariable",
    "dataBinding" : [ {
      "target" : "qrvalue",
      "value" : "bind:Widgets.barcodescanner1.datavalue",
      "type" : "string"
    } ],
    "operation" : "insert",
    "dataSet" : [ ],
    "type" : "Codescan",
    "isList" : false,
    "saveInPhonegap" : false,
    "maxResults" : 20,
    "designMaxResults" : 10,
    "onSuccess" : "Actions.notificationAction1.invoke()",
    "inFlightBehavior" : "executeLast",
    "startUpdate" : false,
    "autoUpdate" : false,
    "transformationRequired" : false,
    "liveSource" : "qrdb",
    "ignoreCase" : true,
    "matchMode" : "start",
    "orderBy" : "id asc",
    "propertiesMap" : {
      "columns" : [ {
        "fieldName" : "id",
        "type" : "integer",
        "fullyQualifiedType" : "integer",
        "columnName" : "ID",
        "isPrimaryKey" : true,
        "notNull" : true,
        "length" : 0,
        "precision" : 10,
        "generator" : "identity",
        "isRelated" : false,
        "defaultValue" : "",
        "scale" : 0
      }, {
        "fieldName" : "qrvalue",
        "type" : "string",
        "fullyQualifiedType" : "string",
        "columnName" : "QRvalue",
        "isPrimaryKey" : false,
        "notNull" : false,
        "length" : 255,
        "precision" : 0,
        "generator" : "assigned",
        "isRelated" : false,
        "defaultValue" : "",
        "scale" : 0
      } ],
      "entityName" : "Codescan",
      "fullyQualifiedName" : "com.mobile_widgets_variables.qrdb.Codescan",
      "tableType" : "TABLE",
      "primaryFields" : [ "id" ]
    },
    "tableName" : "codescan",
    "tableType" : "TABLE",
    "properties" : [ ],
    "relatedTables" : [ ],
    "filterFields" : { },
    "inputFields" : { },
    "package" : "com.mobile_widgets_variables.qrdb.Codescan"
  },
  "notificationAction1" : {
    "_id" : "wm-notificationAction1-wm.NotificationVariable-1521182102071",
    "name" : "notificationAction1",
    "owner" : "Page",
    "category" : "wm.NotificationVariable",
    "dataBinding" : [ {
      "target" : "content",
      "value" : "inline",
      "type" : "string"
    }, {
      "target" : "text",
      "value" : "success",
      "type" : "string"
    }, {
      "target" : "duration",
      "value" : "4000",
      "type" : "number"
    }, {
      "target" : "class",
      "value" : "Success",
      "type" : "string"
    }, {
      "target" : "toasterPosition",
      "value" : "bottom right",
      "type" : "string"
    } ],
    "operation" : "toast"
  },
  "staticVariable4" : {
    "_id" : "wm-staticVariable4-wm.Variable-1490684869586",
    "name" : "staticVariable4",
    "owner" : "Page",
    "category" : "wm.Variable",
    "dataBinding" : [ ],
    "dataSet" : {
      "dataValue" : true
    },
    "type" : "boolean",
    "isList" : false,
    "saveInPhonegap" : false
  }
}